…
select()

Supongamos que no queremos conservar todas las columnas del data frame original. En nuestro caso particular supongamos que únicamente queremos trabajar con las columnas year, sex y name. En ese caso podemos seleccionar dichas columnas de la siguiente forma:

# Seleccionando las columnas year, sex y name:

babynames %>%
  select(year, sex, name)
## # A tibble: 1,924,665 x 3
##     year sex   name     
##    <dbl> <chr> <chr>    
##  1  1880 F     Mary     
##  2  1880 F     Anna     
##  3  1880 F     Emma     
##  4  1880 F     Elizabeth
##  5  1880 F     Minnie   
##  6  1880 F     Margaret 
##  7  1880 F     Ida      
##  8  1880 F     Alice    
##  9  1880 F     Bertha   
## 10  1880 F     Sarah    
## # ... with 1,924,655 more rows

Otras formas alternativas para obtener el mismo resultado sería utilizando :, que se utiliza para seleccionar las variables que se encuentran entre las dos columnas seleccionadas o, por otro lado, eliminando las dos últimas columnas con el signo negativo.

# seleccionando las columnas que se encuentran entre las columnas year y name:

babynames %>%
  select(year:name)
## # A tibble: 1,924,665 x 3
##     year sex   name     
##    <dbl> <chr> <chr>    
##  1  1880 F     Mary     
##  2  1880 F     Anna     
##  3  1880 F     Emma     
##  4  1880 F     Elizabeth
##  5  1880 F     Minnie   
##  6  1880 F     Margaret 
##  7  1880 F     Ida      
##  8  1880 F     Alice    
##  9  1880 F     Bertha   
## 10  1880 F     Sarah    
## # ... with 1,924,655 more rows

# eliminando las columnas que se encuentran entre n y prop:

babynames %>%
  select(-(n:prop))
## # A tibble: 1,924,665 x 3
##     year sex   name     
##    <dbl> <chr> <chr>    
##  1  1880 F     Mary     
##  2  1880 F     Anna     
##  3  1880 F     Emma     
##  4  1880 F     Elizabeth
##  5  1880 F     Minnie   
##  6  1880 F     Margaret 
##  7  1880 F     Ida      
##  8  1880 F     Alice    
##  9  1880 F     Bertha   
## 10  1880 F     Sarah    
## # ... with 1,924,655 more rows

filter()

La funcion filter() permite seleccionar un conjunto de observaciones según un parámetro determinado. Por ejemplo, supongamos que nos interesa seleccionar únicamente las observaciones correspondientes al año 2017. En dicho caso podemos indicar el siguiente código:

babynames %>%
  filter(year== 2017)
## # A tibble: 32,469 x 5
##     year sex   name          n    prop
##    <dbl> <chr> <chr>     <int>   <dbl>
##  1  2017 F     Emma      19738 0.0105 
##  2  2017 F     Olivia    18632 0.00994
##  3  2017 F     Ava       15902 0.00848
##  4  2017 F     Isabella  15100 0.00805
##  5  2017 F     Sophia    14831 0.00791
##  6  2017 F     Mia       13437 0.00717
##  7  2017 F     Charlotte 12893 0.00688
##  8  2017 F     Amelia    11800 0.00629
##  9  2017 F     Evelyn    10675 0.00569
## 10  2017 F     Abigail   10551 0.00563
## # ... with 32,459 more rows

Pongamos que nos interesa seleccionar solo los nombres de sexo masculino (M), para ello indicaríamos el siguiente comando:

babynames %>%
  filter(sex== "M")
## # A tibble: 786,372 x 5
##     year sex   name        n   prop
##    <dbl> <chr> <chr>   <int>  <dbl>
##  1  1880 M     John     9655 0.0815
##  2  1880 M     William  9532 0.0805
##  3  1880 M     James    5927 0.0501
##  4  1880 M     Charles  5348 0.0452
##  5  1880 M     George   5126 0.0433
##  6  1880 M     Frank    3242 0.0274
##  7  1880 M     Joseph   2632 0.0222
##  8  1880 M     Thomas   2534 0.0214
##  9  1880 M     Henry    2444 0.0206
## 10  1880 M     Robert   2415 0.0204
## # ... with 786,362 more rows

En el caso de que quisieramos seleccionar los nombres de sexo masculino para un año determinado anotaríamos el siguiente código:

babynames %>%
  filter(year == 2017 & sex== "M")
## # A tibble: 14,160 x 5
##     year sex   name         n    prop
##    <dbl> <chr> <chr>    <int>   <dbl>
##  1  2017 M     Liam     18728 0.00954
##  2  2017 M     Noah     18326 0.00933
##  3  2017 M     William  14904 0.00759
##  4  2017 M     James    14232 0.00725
##  5  2017 M     Logan    13974 0.00712
##  6  2017 M     Benjamin 13733 0.00699
##  7  2017 M     Mason    13502 0.00688
##  8  2017 M     Elijah   13268 0.00676
##  9  2017 M     Oliver   13141 0.00669
## 10  2017 M     Jacob    13106 0.00668
## # ... with 14,150 more rows
…
2017
M
Ruben
745
0.0003795

Como se ha indicado previamente, las pipes %>% sirven especialmente para encadenar funciones, pudiendo reducir el tamaño del código y facilitando su interpretación. Por ejemplo, en el caso de que nos interesara seleccionar únicamente el año y el nombre de los recien nacidos de sexo masculino en el año 2017 indicaríamos:

babynames %>%
  select(year, sex, name) %>%
  filter(year == 2017 & sex== "M")
## # A tibble: 14,160 x 3
##     year sex   name    
##    <dbl> <chr> <chr>   
##  1  2017 M     Liam    
##  2  2017 M     Noah    
##  3  2017 M     William 
##  4  2017 M     James   
##  5  2017 M     Logan   
##  6  2017 M     Benjamin
##  7  2017 M     Mason   
##  8  2017 M     Elijah  
##  9  2017 M     Oliver  
## 10  2017 M     Jacob   
## # ... with 14,150 more rows

mutate()

La función mutate() nos permite añadir columnas nuevas partiendo de las columnas del data frame original. A modo de ejemplo podemos crear una nueva columna, que denominaremos prop_2, como resultado de multiplicar la columna prop por 100. La función mutate() requiere, una vez indicado el data frame sobre el que va a operar, que indiquemos el nombre de la nueva columna y la operación que determina el valor de la misma:

babynames %>%
  mutate( prop_2 = prop * 100)
## # A tibble: 1,924,665 x 6
##     year sex   name          n   prop prop_2
##    <dbl> <chr> <chr>     <int>  <dbl>  <dbl>
##  1  1880 F     Mary       7065 0.0724   7.24
##  2  1880 F     Anna       2604 0.0267   2.67
##  3  1880 F     Emma       2003 0.0205   2.05
##  4  1880 F     Elizabeth  1939 0.0199   1.99
##  5  1880 F     Minnie     1746 0.0179   1.79
##  6  1880 F     Margaret   1578 0.0162   1.62
##  7  1880 F     Ida        1472 0.0151   1.51
##  8  1880 F     Alice      1414 0.0145   1.45
##  9  1880 F     Bertha     1320 0.0135   1.35
## 10  1880 F     Sarah      1288 0.0132   1.32
## # ... with 1,924,655 more rows

Supongamos que nos interesa que en una nueva columna se indique el total de las observaciones del conjunto del data frame. En nuestro caso cabe la posibilidad que nos interese crear una nueva columna donde se indique la suma del total de los babynames, es decir, de n, bien sea la suma de todos los años del periodo (1880-2017), bien sea el total según el año. En dicho caso podemos utilizar la función mutate() de la siguiente forma:

# En el primero de los casos la columna sería igual para el total de observaciones, en tanto en cuanto indica el total de n (348120517).

babynames %>%
  mutate( suma_total = sum(n))
## # A tibble: 1,924,665 x 6
##     year sex   name          n   prop suma_total
##    <dbl> <chr> <chr>     <int>  <dbl>      <int>
##  1  1880 F     Mary       7065 0.0724  348120517
##  2  1880 F     Anna       2604 0.0267  348120517
##  3  1880 F     Emma       2003 0.0205  348120517
##  4  1880 F     Elizabeth  1939 0.0199  348120517
##  5  1880 F     Minnie     1746 0.0179  348120517
##  6  1880 F     Margaret   1578 0.0162  348120517
##  7  1880 F     Ida        1472 0.0151  348120517
##  8  1880 F     Alice      1414 0.0145  348120517
##  9  1880 F     Bertha     1320 0.0135  348120517
## 10  1880 F     Sarah      1288 0.0132  348120517
## # ... with 1,924,655 more rows

# En el segundo de los casos, agrupando por año, el valor de la columna sería distinta según el año. Así, por ejemplo, para 1880 la suma de n sería 201484. 

babynames %>%
  group_by(year) %>%
  mutate( suma_by_year = sum(n))
## # A tibble: 1,924,665 x 6
## # Groups:   year [138]
##     year sex   name          n   prop suma_by_year
##    <dbl> <chr> <chr>     <int>  <dbl>        <int>
##  1  1880 F     Mary       7065 0.0724       201484
##  2  1880 F     Anna       2604 0.0267       201484
##  3  1880 F     Emma       2003 0.0205       201484
##  4  1880 F     Elizabeth  1939 0.0199       201484
##  5  1880 F     Minnie     1746 0.0179       201484
##  6  1880 F     Margaret   1578 0.0162       201484
##  7  1880 F     Ida        1472 0.0151       201484
##  8  1880 F     Alice      1414 0.0145       201484
##  9  1880 F     Bertha     1320 0.0135       201484
## 10  1880 F     Sarah      1288 0.0132       201484
## # ... with 1,924,655 more rows
…
babynames %>%
  summarise(num_observaciones = n(),
            total_babynames = sum(n))
## # A tibble: 1 x 2
##   num_observaciones total_babynames
##               <int>           <int>
## 1           1924665       348120517

No obstante, la función summarise() tiene una especial utilidad cuando se utiliza conjuntamente con la función group_by(). Así, por ejemplo, podemos estimar el número de nacimientos por cada año:

babynames %>%
  group_by (year) %>%
  summarise(suma = sum(n))
## # A tibble: 138 x 2
##     year   suma
##    <dbl>  <int>
##  1  1880 201484
##  2  1881 192696
##  3  1882 221533
##  4  1883 216946
##  5  1884 243462
##  6  1885 240854
##  7  1886 255317
##  8  1887 247394
##  9  1888 299473
## 10  1889 288946
## # ... with 128 more rows

O podemos identificar el número de nacimientos por año y por sexo del recién nacido:

babynames %>%
  group_by (year, sex) %>%
  summarise(suma = sum(n))
## # A tibble: 276 x 3
## # Groups:   year [138]
##     year sex     suma
##    <dbl> <chr>  <int>
##  1  1880 F      90993
##  2  1880 M     110491
##  3  1881 F      91953
##  4  1881 M     100743
##  5  1882 F     107847
##  6  1882 M     113686
##  7  1883 F     112319
##  8  1883 M     104627
##  9  1884 F     129020
## 10  1884 M     114442
## # ... with 266 more rows

De forma similar podemos estimar en una sola orden el valor de diversos indicadores. A modo de ejemplo, estimamos para cada año y según el sexo del recién nacido, el total de nacimientos, el valor máximo y el valor mínimo (que previsiblemente será 5 debido a que la base de datos proporciona información de los nombres que superen dicho valor)

babynames %>%
  group_by (year, sex) %>%
  summarise(suma = sum(n), max = max(n), min = min(n))
## # A tibble: 276 x 5
## # Groups:   year [138]
##     year sex     suma   max   min
##    <dbl> <chr>  <int> <int> <int>
##  1  1880 F      90993  7065     5
##  2  1880 M     110491  9655     5
##  3  1881 F      91953  6919     5
##  4  1881 M     100743  8769     5
##  5  1882 F     107847  8148     5
##  6  1882 M     113686  9557     5
##  7  1883 F     112319  8012     5
##  8  1883 M     104627  8894     5
##  9  1884 F     129020  9217     5
## 10  1884 M     114442  9388     5
## # ... with 266 more rows
