Análisis de conglomerados (Hierarchical clustering) & dendrogramas en R (En construcción)
…
Dataset: Coeficientes de participación sectorial del VAB de las regiones peruanas

En esta ocasión vamos a trabajar con los coeficientes de participación sectorial del Valor Agregado Bruto por regiones de Perú para los años 2001 y 2012. Es decir, en los siguientes apartados se realizará un análisis de conglomerados jerárquico poniendo como pretexto examinar las similitudes entre regiones peruanas en función de su participación sectorial relativa en los años mencionados. Se buscará, por tanto, examinar similitudes regionales en términos de composición sectorial del VAB. En cierta medida este análisis podría servir como complemento del análisis realizado en este post anterior, donde se examinaba el peso sectorial de cada región peruana sobre la economía departamental y nacional en 2016.

La información sobre la participación relativa sectorial de las regiones peruanas las hemos obtenido del Instituto Nacional de Estadística e Informática del Perú (INEI). Como en este caso tenemos las participaciones sectoriales-regionales guardadas en un archivo excel en nuestro ordenador, empezamos cargando dichos archivos, uno para el año 2001 y otro para el año 2012, utilizando el paquete {readxl} y la función read_excel().

ddendvab01 <- read_excel("datasets/ddendvab01.xlsx")
ddendvab12 <- read_excel("datasets/ddendvab12.xlsx")

Como podemos ver, hemos clasificado la actividad productiva de las regiones en nueve grandes categorías o sectores productivos, donde en este caso la pesca se encuentra dentro de la categoría agrvab (agrícultura, caza y silvicultura). El resto de sectores son: minvab: minería y actividades extractivas; manvab: manufactura; convab: construcción; comvab: comercio; tycvab: transporte y comunicaciones; ryhvab: restaurantes y hoteles; sguvab: servicios gubernamentales y otrvab: otros servicios. Es conocido, tal y cómo quedó reflejado en este post arriba mencionado, la gran concentración productiva existente en algunas regiones del país. La actividad extractiva, por ejemplo, representa una gran proporción del VAB total en regiones como Cusco, Arequipa, Ancash entre otras, la agricultura resulta especialmente relevante en la región de Amazonas o las actividades de servicios lideran notablemente la economía de la región capitalina, Lima.

ddendvab01
## # A tibble: 24 x 10
##    Name  agrvab01 minvab01 manvab01 convab01 comvab01 tycvab01 ryhvab01 sguvab01
##    <chr>    <dbl>    <dbl>    <dbl>    <dbl>    <dbl>    <dbl>    <dbl>    <dbl>
##  1 AMA       40.7    0.290    11.0      1.91    10.0      8.48     2.88    10.8 
##  2 ANC       10.9   27.6      15.7      4.39     6.78     7.26     2.11     5.62
##  3 APU       27.4    0.905    10.2      9.10    13.8      3.36     4.24    18.2 
##  4 ARE       15.3    5.96     18.8      5.80    16.9      8.67     2.97     4.14
##  5 AYA       27.4    2.51     12.2      5.05    16.2      4.46     2.38    16.1 
##  6 CAJ       19.9   31.3      10.8      4.80     9.25     3.51     2.34     6.61
##  7 CUS       13.4   10.3      13.0      7.65    15.7      7.17     6.79     8.39
##  8 HUAV      17.0    7.98      3.04     1.04     5.97     1.46     1.10     7.72
##  9 HUAC      29.2    7.04     10.0      1.62    15.0     10.8      3.96    10.4 
## 10 ICA       19.4    4.77     19.5      3.74    14.7      9.23     4.32     5.93
## # ... with 14 more rows, and 1 more variable: otrvab01 <dbl>
ddendvab12
## # A tibble: 24 x 10
##    Name  agrvab12 minvab12 manvab12 convab12 comvab12 tycvab12 ryhvab12 sguvab12
##    <chr>    <dbl>    <dbl>    <dbl>    <dbl>    <dbl>    <dbl>    <dbl>    <dbl>
##  1 AMA      33.2     0.316     8.41    13.3      8.72     8.43     2.72    12.8 
##  2 ANC       7.30   26.2      12.2      7.49     7.60     8.74     2.55     6.85
##  3 APU      24.0     0.542     8.12    17.1     11.9      3.12     4.20    20.7 
##  4 ARE      12.4     8.64     17.3     13.9     14.5      8.51     2.87     3.99
##  5 AYA      18.8    10.2       7.69    17.5     12.9      4.07     2.20    14.7 
##  6 CAJ      18.9    20.0      11.3      8.47    10.5      4.54     3.01     9.61
##  7 CUS      10.3    20.1       7.98    17.1     11.5      5.88     6.23     6.96
##  8 HUAV     14.0     8.07      3.02     2.14     7.36     2.00     1.47    12.6 
##  9 HUAC     23.7     3.10      9.70     4.08    15.9     13.0      4.79    13.4 
## 10 ICA      16.4     8.02     20.2     13.5     10.8      8.05     3.56     4.84
## # ... with 14 more rows, and 1 more variable: otrvab12 <dbl>

Antes de empezar a operar indicamos que los nombres de las filas (rownames) son los que se encuentran en la columna con el nombre name y, posteriormente, quitamos dicha columna de nuestro dataset dejando únicamente los valores sobre los que vamos a trabajar.

rownames(ddendvab01)<- ddendvab01$Name
rownames(ddendvab01) 
##  [1] "AMA"  "ANC"  "APU"  "ARE"  "AYA"  "CAJ"  "CUS"  "HUAV" "HUAC" "ICA" 
## [11] "JUN"  "LLIB" "LAM"  "LIM"  "LORE" "MDD"  "MOQ"  "PAS"  "PIU"  "PUN" 
## [21] "SMA"  "TAC"  "TUM"  "UCA"
ddendvab01$Name <- NULL
ddendvab01
## # A tibble: 24 x 9
##    agrvab01 minvab01 manvab01 convab01 comvab01 tycvab01 ryhvab01 sguvab01
##  *    <dbl>    <dbl>    <dbl>    <dbl>    <dbl>    <dbl>    <dbl>    <dbl>
##  1     40.7    0.290    11.0      1.91    10.0      8.48     2.88    10.8 
##  2     10.9   27.6      15.7      4.39     6.78     7.26     2.11     5.62
##  3     27.4    0.905    10.2      9.10    13.8      3.36     4.24    18.2 
##  4     15.3    5.96     18.8      5.80    16.9      8.67     2.97     4.14
##  5     27.4    2.51     12.2      5.05    16.2      4.46     2.38    16.1 
##  6     19.9   31.3      10.8      4.80     9.25     3.51     2.34     6.61
##  7     13.4   10.3      13.0      7.65    15.7      7.17     6.79     8.39
##  8     17.0    7.98      3.04     1.04     5.97     1.46     1.10     7.72
##  9     29.2    7.04     10.0      1.62    15.0     10.8      3.96    10.4 
## 10     19.4    4.77     19.5      3.74    14.7      9.23     4.32     5.93
## # ... with 14 more rows, and 1 more variable: otrvab01 <dbl>

rownames(ddendvab12)<-ddendvab12$Name
rownames(ddendvab12)
##  [1] "AMA"  "ANC"  "APU"  "ARE"  "AYA"  "CAJ"  "CUS"  "HUAV" "HUAC" "ICA" 
## [11] "JUN"  "LLIB" "LAM"  "LIM"  "LORE" "MDD"  "MOQ"  "PAS"  "PIU"  "PUN" 
## [21] "SMA"  "TAC"  "TUM"  "UCA"
ddendvab12$Name <- NULL
ddendvab12
## # A tibble: 24 x 9
##    agrvab12 minvab12 manvab12 convab12 comvab12 tycvab12 ryhvab12 sguvab12
##  *    <dbl>    <dbl>    <dbl>    <dbl>    <dbl>    <dbl>    <dbl>    <dbl>
##  1    33.2     0.316     8.41    13.3      8.72     8.43     2.72    12.8 
##  2     7.30   26.2      12.2      7.49     7.60     8.74     2.55     6.85
##  3    24.0     0.542     8.12    17.1     11.9      3.12     4.20    20.7 
##  4    12.4     8.64     17.3     13.9     14.5      8.51     2.87     3.99
##  5    18.8    10.2       7.69    17.5     12.9      4.07     2.20    14.7 
##  6    18.9    20.0      11.3      8.47    10.5      4.54     3.01     9.61
##  7    10.3    20.1       7.98    17.1     11.5      5.88     6.23     6.96
##  8    14.0     8.07      3.02     2.14     7.36     2.00     1.47    12.6 
##  9    23.7     3.10      9.70     4.08    15.9     13.0      4.79    13.4 
## 10    16.4     8.02     20.2     13.5     10.8      8.05     3.56     4.84
## # ... with 14 more rows, and 1 more variable: otrvab12 <dbl>
…
