…
b <- format(year_1980$vab_1980, scientific = F)

head(b)
## [1] " 2776590000" "  941490000" "  397052000" "  220089000" "  646876000"
## [6] "  268312000"

Puede que nos sea útil utilizar separadores de miles en los números que estemos utilizando. En este caso tenemos varias opciones que podemos utilizar:

# Separador mediante un espacio en blanco:

year_1980$vab_1980_espacio <- format(year_1980$vab_1980, big.mark = " ")

year_1980 %>%
  select(CCAA, Sector, vab_1980_espacio)
## # A tibble: 255 x 3
##    CCAA               Sector      vab_1980_espacio
##    <chr>              <chr>       <chr>           
##  1 Andalucía          Agricultura " 2 776 590 000"
##  2 Aragón             Agricultura "   941 490 000"
##  3 Asturias           Agricultura "   397 052 000"
##  4 Baleares           Agricultura "   220 089 000"
##  5 Canarias           Agricultura "   646 876 000"
##  6 Cantabria          Agricultura "   268 312 000"
##  7 Castilla y León    Agricultura " 1 669 747 000"
##  8 Castilla la Mancha Agricultura " 1 516 187 000"
##  9 Cataluña           Agricultura " 1 861 573 000"
## 10 Valencia           Agricultura " 1 454 922 000"
## # ... with 245 more rows

# Separador mediante uso de comas:

year_1980$vab_1980_comas <- format(year_1980$vab_1980, big.mark = ",")

year_1980 %>%
  select(CCAA, Sector, vab_1980_comas)
## # A tibble: 255 x 3
##    CCAA               Sector      vab_1980_comas  
##    <chr>              <chr>       <chr>           
##  1 Andalucía          Agricultura " 2,776,590,000"
##  2 Aragón             Agricultura "   941,490,000"
##  3 Asturias           Agricultura "   397,052,000"
##  4 Baleares           Agricultura "   220,089,000"
##  5 Canarias           Agricultura "   646,876,000"
##  6 Cantabria          Agricultura "   268,312,000"
##  7 Castilla y León    Agricultura " 1,669,747,000"
##  8 Castilla la Mancha Agricultura " 1,516,187,000"
##  9 Cataluña           Agricultura " 1,861,573,000"
## 10 Valencia           Agricultura " 1,454,922,000"
## # ... with 245 more rows

# Separador mediante uso de puntos:

year_1980$vab_1980_puntos <- format(year_1980$vab_1980, big.mark = ".")
## Warning in prettyNum(.Internal(format(x, trim, digits, nsmall, width, 3L, :
## 'big.mark' and 'decimal.mark' are both '.', which could be confusing

year_1980 %>%
  select(CCAA, Sector, vab_1980_puntos)
## # A tibble: 255 x 3
##    CCAA               Sector      vab_1980_puntos 
##    <chr>              <chr>       <chr>           
##  1 Andalucía          Agricultura " 2.776.590.000"
##  2 Aragón             Agricultura "   941.490.000"
##  3 Asturias           Agricultura "   397.052.000"
##  4 Baleares           Agricultura "   220.089.000"
##  5 Canarias           Agricultura "   646.876.000"
##  6 Cantabria          Agricultura "   268.312.000"
##  7 Castilla y León    Agricultura " 1.669.747.000"
##  8 Castilla la Mancha Agricultura " 1.516.187.000"
##  9 Cataluña           Agricultura " 1.861.573.000"
## 10 Valencia           Agricultura " 1.454.922.000"
## # ... with 245 more rows
…
En primer lugar podemos establecer el formato fixed mediante el comando format = "f". En

# El formato fixed lo establecemos de la siguiente forma:

year_2011$vab_2011_fixed <- formatC(year_2011$vab_2011, format= "f")

year_2011 %>%
  select(CCAA, Nombre, vab_2011_fixed)
## # A tibble: 255 x 3
##    CCAA               Nombre vab_2011_fixed 
##    <chr>              <chr>  <chr>          
##  1 Andalucía          AGR    6766581000.0000
##  2 Aragón             AGR    1427819000.0000
##  3 Asturias           AGR    413867000.0000 
##  4 Baleares           AGR    225131000.0000 
##  5 Canarias           AGR    412177000.0000 
##  6 Cantabria          AGR    269603000.0000 
##  7 Castilla y León    AGR    3633373000.0000
##  8 Castilla la Mancha AGR    2245401000.0000
##  9 Cataluña           AGR    2313743000.0000
## 10 Valencia           AGR    1849193000.0000
## # ... with 245 more rows

# Añadimos solo un dígito con digits = 1 (podemos añadir más digitos según conveniencia)

year_2011$vab_2011_fixed_b <- formatC(year_2011$vab_2011, format= "f",digits= 1)

year_2011 %>%
  select(CCAA, Nombre, vab_2011_fixed_b)
## # A tibble: 255 x 3
##    CCAA               Nombre vab_2011_fixed_b
##    <chr>              <chr>  <chr>           
##  1 Andalucía          AGR    6766581000.0    
##  2 Aragón             AGR    1427819000.0    
##  3 Asturias           AGR    413867000.0     
##  4 Baleares           AGR    225131000.0     
##  5 Canarias           AGR    412177000.0     
##  6 Cantabria          AGR    269603000.0     
##  7 Castilla y León    AGR    3633373000.0    
##  8 Castilla la Mancha AGR    2245401000.0    
##  9 Cataluña           AGR    2313743000.0    
## 10 Valencia           AGR    1849193000.0    
## # ... with 245 more rows

# Al igual que hemos hecho previamente podemos separar los miles 

year_2011$vab_2011_fixed_c <- formatC(year_2011$vab_2011, format= "f",digits= 1, big.mark = ".") 

year_2011 %>%
  select(CCAA, Nombre, vab_2011_fixed_c)
## # A tibble: 255 x 3
##    CCAA               Nombre vab_2011_fixed_c
##    <chr>              <chr>  <chr>           
##  1 Andalucía          AGR    6.766.581.000.0 
##  2 Aragón             AGR    1.427.819.000.0 
##  3 Asturias           AGR    413.867.000.0   
##  4 Baleares           AGR    225.131.000.0   
##  5 Canarias           AGR    412.177.000.0   
##  6 Cantabria          AGR    269.603.000.0   
##  7 Castilla y León    AGR    3.633.373.000.0 
##  8 Castilla la Mancha AGR    2.245.401.000.0 
##  9 Cataluña           AGR    2.313.743.000.0 
## 10 Valencia           AGR    1.849.193.000.0 
## # ... with 245 more rows

Con la función formatC() establecemos el formato científico con el comando `format= “e” de la siguiente forma:

year_2011$vab_2011_e <- formatC(year_2011$vab_2011, digits = 1, format= "e")

year_2011 %>%
  select(CCAA, Nombre, vab_2011_e)
## # A tibble: 255 x 3
##    CCAA               Nombre vab_2011_e
##    <chr>              <chr>  <chr>     
##  1 Andalucía          AGR    6.8e+09   
##  2 Aragón             AGR    1.4e+09   
##  3 Asturias           AGR    4.1e+08   
##  4 Baleares           AGR    2.3e+08   
##  5 Canarias           AGR    4.1e+08   
##  6 Cantabria          AGR    2.7e+08   
##  7 Castilla y León    AGR    3.6e+09   
##  8 Castilla la Mancha AGR    2.2e+09   
##  9 Cataluña           AGR    2.3e+09   
## 10 Valencia           AGR    1.8e+09   
## # ... with 245 more rows

year_2011$vab_2011_e_b <- formatC(year_2011$vab_2011, digits = 3, format= "e")

year_2011 %>%
  select(CCAA, Nombre, vab_2011_e_b)
## # A tibble: 255 x 3
##    CCAA               Nombre vab_2011_e_b
##    <chr>              <chr>  <chr>       
##  1 Andalucía          AGR    6.767e+09   
##  2 Aragón             AGR    1.428e+09   
##  3 Asturias           AGR    4.139e+08   
##  4 Baleares           AGR    2.251e+08   
##  5 Canarias           AGR    4.122e+08   
##  6 Cantabria          AGR    2.696e+08   
##  7 Castilla y León    AGR    3.633e+09   
##  8 Castilla la Mancha AGR    2.245e+09   
##  9 Cataluña           AGR    2.314e+09   
## 10 Valencia           AGR    1.849e+09   
## # ... with 245 more rows

Por último, el formato “g” que se obtiene al especificar format = "g" utiliza el formato fixed o el formato científico dependiendo de cuál de ellos ocupa menos espacio.

year_2011$vab_2011_g <- formatC(year_2011$vab_2011, digits = 1, format= "g")

year_2011 %>%
  select(CCAA, Nombre, vab_2011_g)
## # A tibble: 255 x 3
##    CCAA               Nombre vab_2011_g
##    <chr>              <chr>  <chr>     
##  1 Andalucía          AGR    7e+09     
##  2 Aragón             AGR    1e+09     
##  3 Asturias           AGR    4e+08     
##  4 Baleares           AGR    2e+08     
##  5 Canarias           AGR    4e+08     
##  6 Cantabria          AGR    3e+08     
##  7 Castilla y León    AGR    4e+09     
##  8 Castilla la Mancha AGR    2e+09     
##  9 Cataluña           AGR    2e+09     
## 10 Valencia           AGR    2e+09     
## # ... with 245 more rows

year_2011$vab_2011_g_b <- formatC(year_2011$vab_2011, digits = 9, format= "g")

year_2011 %>%
  select(CCAA, Nombre, vab_2011_g_b)
## # A tibble: 255 x 3
##    CCAA               Nombre vab_2011_g_b
##    <chr>              <chr>  <chr>       
##  1 Andalucía          AGR    6.766581e+09
##  2 Aragón             AGR    1.427819e+09
##  3 Asturias           AGR    " 413867000"
##  4 Baleares           AGR    " 225131000"
##  5 Canarias           AGR    " 412177000"
##  6 Cantabria          AGR    " 269603000"
##  7 Castilla y León    AGR    3.633373e+09
##  8 Castilla la Mancha AGR    2.245401e+09
##  9 Cataluña           AGR    2.313743e+09
## 10 Valencia           AGR    1.849193e+09
## # ... with 245 more rows
…
