…
Introducción

En este segundo post, que continúa la exposición que iniciamos en el post previo de cómo trabajar con la sintaxis de SQL en R utilizando el paquete {sqldf}, vamos a explicar cómo unir tablas y cómo compilar información de diferentes fuentes.

Compilar información proveniente de varias tablas es un aspecto fundamental en el análisis de datos. Aunque a día de hoy todavía no hemos realizado un post específico explicando cómo hacer estas operaciones en R, en varios post previos hemos tenido que realizar estas operaciones (véase por ejemplo aquí, aquí o aquí). Por todo ello, aunque el objetivo principal de este post consiste en exponer cómo realizar estas operaciones utilizando la sintaxis y el lenguaje de SQL, aprovecharemos también para explicar cómo llevar a cabo uniones (JOINs) de distintos dataframes utilizando herramientas propias de R.

A la hora de unir tablas o dataframes existen diversos aspectos que debemos tener en cuenta y dependerá de nuestros dataframes originales y del resultado que buscamos conseguir al realizar las uniones. Por ello existen diversos tipos de unión que, evidentemente, recibirán diferentes nombres. Intentaremos a lo largo del post abordar diferentes posibilidades utilizando información de algunos países procedentes del dataset gapminder del paquete del mismo nombre.

El paquete gapminder ofrece varios dataframes referentes a un conjunto importante de países. El dataframe filtrado recibe el nombre de gapminder:

gapminder::gapminder
## # A tibble: 1,704 x 6
##    country     continent  year lifeExp      pop gdpPercap
##    <fct>       <fct>     <int>   <dbl>    <int>     <dbl>
##  1 Afghanistan Asia       1952    28.8  8425333      779.
##  2 Afghanistan Asia       1957    30.3  9240934      821.
##  3 Afghanistan Asia       1962    32.0 10267083      853.
##  4 Afghanistan Asia       1967    34.0 11537966      836.
##  5 Afghanistan Asia       1972    36.1 13079460      740.
##  6 Afghanistan Asia       1977    38.4 14880372      786.
##  7 Afghanistan Asia       1982    39.9 12881816      978.
##  8 Afghanistan Asia       1987    40.8 13867957      852.
##  9 Afghanistan Asia       1992    41.7 16317921      649.
## 10 Afghanistan Asia       1997    41.8 22227415      635.
## # ... with 1,694 more rows

Un segundo dataset (continent_colors) contiene los colores que han asignado a cada continente:

gapminder::continent_colors
##    Africa  Americas      Asia    Europe   Oceania 
## "#7F3B08" "#A50026" "#40004B" "#276419" "#313695"

Un tercer dataset (country_codes) contiene información sobre los códigos de los países

gapminder::country_codes
## # A tibble: 187 x 3
##    country     iso_alpha iso_num
##    <chr>       <chr>       <int>
##  1 Afghanistan AFG             4
##  2 Albania     ALB             8
##  3 Algeria     DZA            12
##  4 Angola      AGO            24
##  5 Argentina   ARG            32
##  6 Armenia     ARM            51
##  7 Aruba       ABW           533
##  8 Australia   AUS            36
##  9 Austria     AUT            40
## 10 Azerbaijan  AZE            31
## # ... with 177 more rows

Y un cuarto dataframe (gapminder_unfiltered) contiene una mayor información que el dataset gapminder. Este data frame sin filtrar está compuesto por 3313 observaciones mientras que el paquete gapminder se conforma por 1704.

gapminder::gapminder_unfiltered
## # A tibble: 3,313 x 6
##    country     continent  year lifeExp      pop gdpPercap
##    <fct>       <fct>     <int>   <dbl>    <int>     <dbl>
##  1 Afghanistan Asia       1952    28.8  8425333      779.
##  2 Afghanistan Asia       1957    30.3  9240934      821.
##  3 Afghanistan Asia       1962    32.0 10267083      853.
##  4 Afghanistan Asia       1967    34.0 11537966      836.
##  5 Afghanistan Asia       1972    36.1 13079460      740.
##  6 Afghanistan Asia       1977    38.4 14880372      786.
##  7 Afghanistan Asia       1982    39.9 12881816      978.
##  8 Afghanistan Asia       1987    40.8 13867957      852.
##  9 Afghanistan Asia       1992    41.7 16317921      649.
## 10 Afghanistan Asia       1997    41.8 22227415      635.
## # ... with 3,303 more rows
…
