…
hombres

## # A tibble: 180 x 5
## # Groups:   grupos_edad [9]
##    grupos_edad                    Nombre  Frec suma_grupo_edad percent
##    <chr>                          <chr>  <dbl>           <dbl>   <dbl>
##  1 Edad promedio entre 0 y 5 años LEO    16593           51596   32.2 
##  2 Edad promedio entre 0 y 5 años ENZO    9692           51596   18.8 
##  3 Edad promedio entre 0 y 5 años DYLAN   6719           51596   13.0 
##  4 Edad promedio entre 0 y 5 años THIAGO  5054           51596    9.80
##  5 Edad promedio entre 0 y 5 años NEIZAN  1789           51596    3.47
##  6 Edad promedio entre 0 y 5 años IZEI     788           51596    1.53
##  7 Edad promedio entre 0 y 5 años EIDEN    677           51596    1.31
##  8 Edad promedio entre 0 y 5 años EIDAN    662           51596    1.28
##  9 Edad promedio entre 0 y 5 años HARON    661           51596    1.28
## 10 Edad promedio entre 0 y 5 años IYAD     619           51596    1.20
## # ... with 170 more rows
…
