…
Como el objetivo es realizar un gráfico que muestre el ranking de regiones por cada año según su VAB por habitante lo primero que debemos realizar es identificar el puesto ocupa cada región para cada año según dicho indicador. Para ello utilizamos la función rank() de la siguiente forma:

Peru_rangos <- Peru %>%
  group_by(year) %>%
  mutate(rango = rank(-vabpc),
         labels = paste0(" ", round(vabpc)))

Si ordenamos nuestro nuevo data set por año y rango con la función arrange() del paquete tidyverse podemos observar el resultado del ranking realizado. Se comprueba que para el año inicial, 1995, la región de Moquegua, una región costera pequeña situada en el sur del país, lidera el ranking seguido por las regiones de Tacna (costa), Lima (costa), Madre de Dios (selva) y Pasco (sierra). Esta clasificación se ha realizado para cada uno de los años del periodo.

Peru_rangos %>%
  arrange(year, rango) 
## # A tibble: 528 x 6
## # Groups:   year [22]
##    Nombre        Area   year  vabpc rango labels 
##    <chr>         <chr>  <chr> <dbl> <dbl> <chr>  
##  1 Moquegua      Costa  1995  8780.     1 " 8780"
##  2 Tacna         Costa  1995  6555.     2 " 6555"
##  3 Lima          Costa  1995  6382.     3 " 6382"
##  4 Madre de Dios Selva  1995  5325.     4 " 5325"
##  5 Pasco         Sierra 1995  5122.     5 " 5122"
##  6 Arequipa      Costa  1995  5037.     6 " 5037"
##  7 Ica           Costa  1995  4232.     7 " 4232"
##  8 Tumbes        Costa  1995  3170.     8 " 3170"
##  9 Áncash        Sierra 1995  3164.     9 " 3164"
## 10 Junín         Sierra 1995  3127.    10 " 3127"
## # ... with 518 more rows
…
