…
Por simple curiosidad vamos a representar diversos waffle charts donde se exponga dicha proporción a lo largo del periodo. Para ello en primer lugar realizaremos algunas modificaciones al dataframe original con el objetivo de establecer el porcentaje de recién nacidos según el sexo. En segundo lugar, debido a la longitud del dataframe, seleccionaremos algunos años para su representación gráfica.

porcentajes <- babynames %>%
  group_by(year, sex) %>%
  summarise(total_sex = sum(n)) %>%
  mutate(total = sum(total_sex), porc = 100*(total_sex/total)) %>%
  filter(year %in% c(1880, 1890, 1900, 1910, 1920, 1930, 1940, 1950, 1960, 1970, 1980, 1990, 2000, 2010, 2017)) %>%
  select(year, sex, porc)

porcentajes$porc <- formatC(porcentajes$porc, format = "f", digits = 1)

porcentajes
## # A tibble: 30 x 3
## # Groups:   year [15]
##     year sex   porc 
##    <dbl> <chr> <chr>
##  1  1880 F     45.2 
##  2  1880 M     54.8 
##  3  1890 F     63.2 
##  4  1890 M     36.8 
##  5  1900 F     66.6 
##  6  1900 M     33.4 
##  7  1910 F     67.1 
##  8  1910 M     32.9 
##  9  1920 F     53.0 
## 10  1920 M     47.0 
## # ... with 20 more rows
…
