Principales operadores de SQL en R con el paquete {sqldf} - R que R
…
En R existe una operativa similar para realizar la misma operación utilizando la función case_when(). Podemos ver un ejemplo de su utilización en este post anterior. Para obtener el mismo resultado que en el ejemplo anterior con CASE WHEN indicaríamos lo siguiente:

loans %>%
  mutate(
    ranking = case_when(
    total < 32888118 ~ "entre el Min y 1stQ",
    total > 32888118 & total < 72669212 ~ "entre 1stQ y Media",
    total > 72669212 & total < 106005716 ~ "entre Media y Mean",
    total > 106005716 & total < 167945568  ~ "entre Mean y 3rdQ",
    TRUE ~"entre 3rdQ y Max"
  )) %>%
    select(agency_name, year, total, ranking)
## # A tibble: 291 x 4
##    agency_name                            year      total ranking           
##    <chr>                                 <dbl>      <dbl> <chr>             
##  1 Account Control Technology, Inc.         15 122602642. entre Mean y 3rdQ 
##  2 Allied Interstate, Inc.                  15 113326847. entre Mean y 3rdQ 
##  3 CBE Group                                15  83853003. entre Media y Mean
##  4 Coast Professional, Inc.                 15  99643903. entre Media y Mean
##  5 Collection Technology Incorporated       15  75725486. entre Media y Mean
##  6 Collecto, INC dba EOS-CCA                15  78776490. entre Media y Mean
##  7 ConServe                                 15 149212488. entre Mean y 3rdQ 
##  8 Delta Management Associates, Inc.        15  43771306. entre 1stQ y Media
##  9 Diversified Collection Services, Inc.    15  60575355. entre 1stQ y Media
## 10 ERS                                      15  91822575. entre Media y Mean
## # ... with 281 more rows
…
